2020-01-01,2020,1,Jan,January,01,3,Wed,Wednesday,1,False,True
2020-01-02,2020,1,Jan,January,02,4,Thu,Thursday,1,True,False
2020-01-03,2020,1,Jan,January,03,5,Fri,Friday,1,True,False
2020-01-04,2020,1,Jan,January,04,6,Sat,Saturday,1,False,False
2020-01-05,2020,1,Jan,January,05,0,Sun,Sunday,1,False,False
2020-01-06,2020,1,Jan,January,06,1,Mon,Monday,1,True,False
2020-01-07,2020,1,Jan,January,07,2,Tue,Tuesday,1,True,False
2020-01-08,2020,1,Jan,January,08,3,Wed,Wednesday,1,True,False
2020-01-09,2020,1,Jan,January,09,4,Thu,Thursday,1,True,False
2020-01-10,2020,1,Jan,January,10,5,Fri,Friday,1,True,False
2020-01-11,2020,1,Jan,January,11,6,Sat,Saturday,1,False,False
2020-01-12,2020,1,Jan,January,12,0,Sun,Sunday,1,False,False
2020-01-13,2020,1,Jan,January,13,1,Mon,Monday,1,True,False
2020-01-14,2020,1,Jan,January,14,2,Tue,Tuesday,1,True,False
2020-01-15,2020,1,Jan,January,15,3,Wed,Wednesday,1,True,False
2020-01-16,2020,1,Jan,January,16,4,Thu,Thursday,1,True,False
2020-01-17,2020,1,Jan,January,17,5,Fri,Friday,1,True,False
2020-01-18,2020,1,Jan,January,18,6,Sat,Saturday,1,False,False
2020-01-19,2020,1,Jan,January,19,0,Sun,Sunday,1,False,False
2020-01-20,2020,1,Jan,January,20,1,Mon,Monday,1,True,False
2020-01-21,2020,1,Jan,January,21,2,Tue,Tuesday,1,True,False
2020-01-22,2020,1,Jan,January,22,3,Wed,Wednesday,1,True,False
2020-01-23,2020,1,Jan,January,23,4,Thu,Thursday,1,True,False
2020-01-24,2020,1,Jan,January,24,5,Fri,Friday,1,True,False
2020-01-25,2020,1,Jan,January,25,6,Sat,Saturday,1,False,False
2020-01-26,2020,1,Jan,January,26,0,Sun,Sunday,1,False,False
2020-01-27,2020,1,Jan,January,27,1,Mon,Monday,1,True,False
2020-01-28,2020,1,Jan,January,28,2,Tue,Tuesday,1,True,False
2020-01-29,2020,1,Jan,January,29,3,Wed,Wednesday,1,True,False
2020-01-30,2020,1,Jan,January,30,4,Thu,Thursday,1,True,False
2020-01-31,2020,1,Jan,January,31,5,Fri,Friday,1,True,False
2020-02-01,2020,2,Feb,February,01,6,Sat,Saturday,1,False,False
2020-02-02,2020,2,Feb,February,02,0,Sun,Sunday,1,False,False
2020-02-03,2020,2,Feb,February,03,1,Mon,Monday,1,True,False
2020-02-04,2020,2,Feb,February,04,2,Tue,Tuesday,1,True,False
2020-02-05,2020,2,Feb,February,05,3,Wed,Wednesday,1,True,False
2020-02-06,2020,2,Feb,February,06,4,Thu,Thursday,1,True,False
2020-02-07,2020,2,Feb,February,07,5,Fri,Friday,1,True,False
2020-02-08,2020,2,Feb,February,08,6,Sat,Saturday,1,False,False
2020-02-09,2020,2,Feb,February,09,0,Sun,Sunday,1,False,False
2020-02-10,2020,2,Feb,February,10,1,Mon,Monday,1,True,False
2020-02-11,2020,2,Feb,February,11,2,Tue,Tuesday,1,True,False
2020-02-12,2020,2,Feb,February,12,3,Wed,Wednesday,1,False,True
2020-02-13,2020,2,Feb,February,13,4,Thu,Thursday,1,False,True
2020-02-14,2020,2,Feb,February,14,5,Fri,Friday,1,True,False
2020-02-15,2020,2,Feb,February,15,6,Sat,Saturday,1,False,False
2020-02-16,2020,2,Feb,February,16,0,Sun,Sunday,1,False,False
2020-02-17,2020,2,Feb,February,17,1,Mon,Monday,1,True,False
2020-02-18,2020,2,Feb,February,18,2,Tue,Tuesday,1,True,False
2020-02-19,2020,2,Feb,February,19,3,Wed,Wednesday,1,True,False
2020-02-20,2020,2,Feb,February,20,4,Thu,Thursday,1,True,False
2020-02-21,2020,2,Feb,February,21,5,Fri,Friday,1,True,False
2020-02-22,2020,2,Feb,February,22,6,Sat,Saturday,1,False,False
2020-02-23,2020,2,Feb,February,23,0,Sun,Sunday,1,False,False
2020-02-24,2020,2,Feb,February,24,1,Mon,Monday,1,True,False
2020-02-25,2020,2,Feb,February,25,2,Tue,Tuesday,1,True,False
2020-02-26,2020,2,Feb,February,26,3,Wed,Wednesday,1,True,False
2020-02-27,2020,2,Feb,February,27,4,Thu,Thursday,1,True,False
2020-02-28,2020,2,Feb,February,28,5,Fri,Friday,1,True,False
2020-02-29,2020,2,Feb,February,29,6,Sat,Saturday,1,False,False
2020-03-01,2020,3,Mar,March,01,0,Sun,Sunday,1,False,False
2020-03-02,2020,3,Mar,March,02,1,Mon,Monday,1,True,False
2020-03-03,2020,3,Mar,March,03,2,Tue,Tuesday,1,True,False
2020-03-04,2020,3,Mar,March,04,3,Wed,Wednesday,1,True,False
2020-03-05,2020,3,Mar,March,05,4,Thu,Thursday,1,True,False
2020-03-06,2020,3,Mar,March,06,5,Fri,Friday,1,True,False
2020-03-07,2020,3,Mar,March,07,6,Sat,Saturday,1,False,False
2020-03-08,2020,3,Mar,March,08,0,Sun,Sunday,1,False,False
2020-03-09,2020,3,Mar,March,09,1,Mon,Monday,1,True,False
2020-03-10,2020,3,Mar,March,10,2,Tue,Tuesday,1,True,False
2020-03-11,2020,3,Mar,March,11,3,Wed,Wednesday,1,True,False
2020-03-12,2020,3,Mar,March,12,4,Thu,Thursday,1,True,False
2020-03-13,2020,3,Mar,March,13,5,Fri,Friday,1,True,False
2020-03-14,2020,3,Mar,March,14,6,Sat,Saturday,1,False,False
2020-03-15,2020,3,Mar,March,15,0,Sun,Sunday,1,False,False
2020-03-16,2020,3,Mar,March,16,1,Mon,Monday,1,True,False
2020-03-17,2020,3,Mar,March,17,2,Tue,Tuesday,1,True,False
2020-03-18,2020,3,Mar,March,18,3,Wed,Wednesday,1,True,False
2020-03-19,2020,3,Mar,March,19,4,Thu,Thursday,1,True,False
2020-03-20,2020,3,Mar,March,20,5,Fri,Friday,1,True,False
2020-03-21,2020,3,Mar,March,21,6,Sat,Saturday,1,False,False
2020-03-22,2020,3,Mar,March,22,0,Sun,Sunday,1,False,False
2020-03-23,2020,3,Mar,March,23,1,Mon,Monday,1,True,False
2020-03-24,2020,3,Mar,March,24,2,Tue,Tuesday,1,True,False
2020-03-25,2020,3,Mar,March,25,3,Wed,Wednesday,1,True,False
2020-03-26,2020,3,Mar,March,26,4,Thu,Thursday,1,True,False
2020-03-27,2020,3,Mar,March,27,5,Fri,Friday,1,True,False
2020-03-28,2020,3,Mar,March,28,6,Sat,Saturday,1,False,False
2020-03-29,2020,3,Mar,March,29,0,Sun,Sunday,1,False,False
2020-03-30,2020,3,Mar,March,30,1,Mon,Monday,1,True,False
2020-03-31,2020,3,Mar,March,31,2,Tue,Tuesday,1,True,False
2020-04-01,2020,4,Apr,April,01,3,Wed,Wednesday,2,True,False
2020-04-02,2020,4,Apr,April,02,4,Thu,Thursday,2,True,False
2020-04-03,2020,4,Apr,April,03,5,Fri,Friday,2,True,False
2020-04-04,2020,4,Apr,April,04,6,Sat,Saturday,2,False,False
2020-04-05,2020,4,Apr,April,05,0,Sun,Sunday,2,False,False
2020-04-06,2020,4,Apr,April,06,1,Mon,Monday,2,True,False
2020-04-07,2020,4,Apr,April,07,2,Tue,Tuesday,2,True,False
2020-04-08,2020,4,Apr,April,08,3,Wed,Wednesday,2,True,False
2020-04-09,2020,4,Apr,April,09,4,Thu,Thursday,2,True,False
2020-04-10,2020,4,Apr,April,10,5,Fri,Friday,2,True,False
2020-04-11,2020,4,Apr,April,11,6,Sat,Saturday,2,False,False
2020-04-12,2020,4,Apr,April,12,0,Sun,Sunday,2,False,False
2020-04-13,2020,4,Apr,April,13,1,Mon,Monday,2,True,False
2020-04-14,2020,4,Apr,April,14,2,Tue,Tuesday,2,True,False
2020-04-15,2020,4,Apr,April,15,3,Wed,Wednesday,2,True,False
2020-04-16,2020,4,Apr,April,16,4,Thu,Thursday,2,True,False
2020-04-17,2020,4,Apr,April,17,5,Fri,Friday,2,True,False
2020-04-18,2020,4,Apr,April,18,6,Sat,Saturday,2,False,False
2020-04-19,2020,4,Apr,April,19,0,Sun,Sunday,2,False,False
2020-04-20,2020,4,Apr,April,20,1,Mon,Monday,2,True,False
2020-04-21,2020,4,Apr,April,21,2,Tue,Tuesday,2,True,False
2020-04-22,2020,4,Apr,April,22,3,Wed,Wednesday,2,True,False
2020-04-23,2020,4,Apr,April,23,4,Thu,Thursday,2,True,False
2020-04-24,2020,4,Apr,April,24,5,Fri,Friday,2,True,False
2020-04-25,2020,4,Apr,April,25,6,Sat,Saturday,2,False,False
2020-04-26,2020,4,Apr,April,26,0,Sun,Sunday,2,False,False
2020-04-27,2020,4,Apr,April,27,1,Mon,Monday,2,True,False
2020-04-28,2020,4,Apr,April,28,2,Tue,Tuesday,2,True,False
2020-04-29,2020,4,Apr,April,29,3,Wed,Wednesday,2,True,False
2020-04-30,2020,4,Apr,April,30,4,Thu,Thursday,2,True,False
2020-05-01,2020,5,May,May,01,5,Fri,Friday,2,True,False
2020-05-02,2020,5,May,May,02,6,Sat,Saturday,2,False,False
2020-05-03,2020,5,May,May,03,0,Sun,Sunday,2,False,False
2020-05-04,2020,5,May,May,04,1,Mon,Monday,2,True,False
2020-05-05,2020,5,May,May,05,2,Tue,Tuesday,2,True,False
2020-05-06,2020,5,May,May,06,3,Wed,Wednesday,2,True,False
2020-05-07,2020,5,May,May,07,4,Thu,Thursday,2,True,False
2020-05-08,2020,5,May,May,08,5,Fri,Friday,2,True,False
2020-05-09,2020,5,May,May,09,6,Sat,Saturday,2,False,False
2020-05-10,2020,5,May,May,10,0,Sun,Sunday,2,False,False
2020-05-11,2020,5,May,May,11,1,Mon,Monday,2,True,False
2020-05-12,2020,5,May,May,12,2,Tue,Tuesday,2,True,False
2020-05-13,2020,5,May,May,13,3,Wed,Wednesday,2,True,False
2020-05-14,2020,5,May,May,14,4,Thu,Thursday,2,True,False
2020-05-15,2020,5,May,May,15,5,Fri,Friday,2,True,False
2020-05-16,2020,5,May,May,16,6,Sat,Saturday,2,False,False
2020-05-17,2020,5,May,May,17,0,Sun,Sunday,2,False,False
2020-05-18,2020,5,May,May,18,1,Mon,Monday,2,True,False
2020-05-19,2020,5,May,May,19,2,Tue,Tuesday,2,True,False
2020-05-20,2020,5,May,May,20,3,Wed,Wednesday,2,True,False
2020-05-21,2020,5,May,May,21,4,Thu,Thursday,2,True,False
2020-05-22,2020,5,May,May,22,5,Fri,Friday,2,True,False
2020-05-23,2020,5,May,May,23,6,Sat,Saturday,2,False,False
2020-05-24,2020,5,May,May,24,0,Sun,Sunday,2,False,False
2020-05-25,2020,5,May,May,25,1,Mon,Monday,2,True,False
2020-05-26,2020,5,May,May,26,2,Tue,Tuesday,2,True,False
2020-05-27,2020,5,May,May,27,3,Wed,Wednesday,2,True,False
2020-05-28,2020,5,May,May,28,4,Thu,Thursday,2,True,False
2020-05-29,2020,5,May,May,29,5,Fri,Friday,2,True,False
2020-05-30,2020,5,May,May,30,6,Sat,Saturday,2,False,False
2020-05-31,2020,5,May,May,31,0,Sun,Sunday,2,False,False
2020-06-01,2020,6,Jun,June,01,1,Mon,Monday,2,True,False
2020-06-02,2020,6,Jun,June,02,2,Tue,Tuesday,2,True,False
2020-06-03,2020,6,Jun,June,03,3,Wed,Wednesday,2,True,False
2020-06-04,2020,6,Jun,June,04,4,Thu,Thursday,2,True,False
2020-06-05,2020,6,Jun,June,05,5,Fri,Friday,2,True,False
2020-06-06,2020,6,Jun,June,06,6,Sat,Saturday,2,False,False
2020-06-07,2020,6,Jun,June,07,0,Sun,Sunday,2,False,False
2020-06-08,2020,6,Jun,June,08,1,Mon,Monday,2,True,False
2020-06-09,2020,6,Jun,June,09,2,Tue,Tuesday,2,True,False
2020-06-10,2020,6,Jun,June,10,3,Wed,Wednesday,2,True,False
2020-06-11,2020,6,Jun,June,11,4,Thu,Thursday,2,True,False
2020-06-12,2020,6,Jun,June,12,5,Fri,Friday,2,True,False
2020-06-13,2020,6,Jun,June,13,6,Sat,Saturday,2,False,False
2020-06-14,2020,6,Jun,June,14,0,Sun,Sunday,2,False,False
2020-06-15,2020,6,Jun,June,15,1,Mon,Monday,2,True,False
2020-06-16,2020,6,Jun,June,16,2,Tue,Tuesday,2,True,False
2020-06-17,2020,6,Jun,June,17,3,Wed,Wednesday,2,True,False
2020-06-18,2020,6,Jun,June,18,4,Thu,Thursday,2,True,False
2020-06-19,2020,6,Jun,June,19,5,Fri,Friday,2,True,False
2020-06-20,2020,6,Jun,June,20,6,Sat,Saturday,2,False,False
2020-06-21,2020,6,Jun,June,21,0,Sun,Sunday,2,False,False
2020-06-22,2020,6,Jun,June,22,1,Mon,Monday,2,True,False
2020-06-23,2020,6,Jun,June,23,2,Tue,Tuesday,2,True,False
2020-06-24,2020,6,Jun,June,24,3,Wed,Wednesday,2,True,False
2020-06-25,2020,6,Jun,June,25,4,Thu,Thursday,2,True,False
2020-06-26,2020,6,Jun,June,26,5,Fri,Friday,2,True,False
2020-06-27,2020,6,Jun,June,27,6,Sat,Saturday,2,False,False
2020-06-28,2020,6,Jun,June,28,0,Sun,Sunday,2,False,False
2020-06-29,2020,6,Jun,June,29,1,Mon,Monday,2,True,False
2020-06-30,2020,6,Jun,June,30,2,Tue,Tuesday,2,True,False
2020-07-01,2020,7,Jul,July,01,3,Wed,Wednesday,3,True,False
2020-07-02,2020,7,Jul,July,02,4,Thu,Thursday,3,True,False
2020-07-03,2020,7,Jul,July,03,5,Fri,Friday,3,True,False
2020-07-04,2020,7,Jul,July,04,6,Sat,Saturday,3,False,False
2020-07-05,2020,7,Jul,July,05,0,Sun,Sunday,3,False,False
2020-07-06,2020,7,Jul,July,06,1,Mon,Monday,3,True,False
2020-07-07,2020,7,Jul,July,07,2,Tue,Tuesday,3,True,False
2020-07-08,2020,7,Jul,July,08,3,Wed,Wednesday,3,True,False
2020-07-09,2020,7,Jul,July,09,4,Thu,Thursday,3,True,False
2020-07-10,2020,7,Jul,July,10,5,Fri,Friday,3,True,False
2020-07-11,2020,7,Jul,July,11,6,Sat,Saturday,3,False,False
2020-07-12,2020,7,Jul,July,12,0,Sun,Sunday,3,False,False
2020-07-13,2020,7,Jul,July,13,1,Mon,Monday,3,True,False
2020-07-14,2020,7,Jul,July,14,2,Tue,Tuesday,3,True,False
2020-07-15,2020,7,Jul,July,15,3,Wed,Wednesday,3,True,False
2020-07-16,2020,7,Jul,July,16,4,Thu,Thursday,3,True,False
2020-07-17,2020,7,Jul,July,17,5,Fri,Friday,3,True,False
2020-07-18,2020,7,Jul,July,18,6,Sat,Saturday,3,False,False
2020-07-19,2020,7,Jul,July,19,0,Sun,Sunday,3,False,False
2020-07-20,2020,7,Jul,July,20,1,Mon,Monday,3,True,False
2020-07-21,2020,7,Jul,July,21,2,Tue,Tuesday,3,True,False
2020-07-22,2020,7,Jul,July,22,3,Wed,Wednesday,3,True,False
2020-07-23,2020,7,Jul,July,23,4,Thu,Thursday,3,True,False
2020-07-24,2020,7,Jul,July,24,5,Fri,Friday,3,True,False
2020-07-25,2020,7,Jul,July,25,6,Sat,Saturday,3,False,False
2020-07-26,2020,7,Jul,July,26,0,Sun,Sunday,3,False,False
2020-07-27,2020,7,Jul,July,27,1,Mon,Monday,3,True,False
2020-07-28,2020,7,Jul,July,28,2,Tue,Tuesday,3,True,False
2020-07-29,2020,7,Jul,July,29,3,Wed,Wednesday,3,True,False
2020-07-30,2020,7,Jul,July,30,4,Thu,Thursday,3,True,False
2020-07-31,2020,7,Jul,July,31,5,Fri,Friday,3,True,False
2020-08-01,2020,8,Aug,August,01,6,Sat,Saturday,3,False,False
2020-08-02,2020,8,Aug,August,02,0,Sun,Sunday,3,False,False
2020-08-03,2020,8,Aug,August,03,1,Mon,Monday,3,True,False
2020-08-04,2020,8,Aug,August,04,2,Tue,Tuesday,3,True,False
2020-08-05,2020,8,Aug,August,05,3,Wed,Wednesday,3,True,False
2020-08-06,2020,8,Aug,August,06,4,Thu,Thursday,3,True,False
2020-08-07,2020,8,Aug,August,07,5,Fri,Friday,3,True,False
2020-08-08,2020,8,Aug,August,08,6,Sat,Saturday,3,False,False
2020-08-09,2020,8,Aug,August,09,0,Sun,Sunday,3,False,False
2020-08-10,2020,8,Aug,August,10,1,Mon,Monday,3,True,False
2020-08-11,2020,8,Aug,August,11,2,Tue,Tuesday,3,True,False
2020-08-12,2020,8,Aug,August,12,3,Wed,Wednesday,3,True,False
2020-08-13,2020,8,Aug,August,13,4,Thu,Thursday,3,True,False
2020-08-14,2020,8,Aug,August,14,5,Fri,Friday,3,True,False
2020-08-15,2020,8,Aug,August,15,6,Sat,Saturday,3,False,False
2020-08-16,2020,8,Aug,August,16,0,Sun,Sunday,3,False,False
2020-08-17,2020,8,Aug,August,17,1,Mon,Monday,3,True,False
2020-08-18,2020,8,Aug,August,18,2,Tue,Tuesday,3,True,False
2020-08-19,2020,8,Aug,August,19,3,Wed,Wednesday,3,True,False
2020-08-20,2020,8,Aug,August,20,4,Thu,Thursday,3,True,False
2020-08-21,2020,8,Aug,August,21,5,Fri,Friday,3,True,False
2020-08-22,2020,8,Aug,August,22,6,Sat,Saturday,3,False,False
2020-08-23,2020,8,Aug,August,23,0,Sun,Sunday,3,False,False
2020-08-24,2020,8,Aug,August,24,1,Mon,Monday,3,True,False
2020-08-25,2020,8,Aug,August,25,2,Tue,Tuesday,3,True,False
2020-08-26,2020,8,Aug,August,26,3,Wed,Wednesday,3,True,False
2020-08-27,2020,8,Aug,August,27,4,Thu,Thursday,3,True,False
2020-08-28,2020,8,Aug,August,28,5,Fri,Friday,3,True,False
2020-08-29,2020,8,Aug,August,29,6,Sat,Saturday,3,False,False
2020-08-30,2020,8,Aug,August,30,0,Sun,Sunday,3,False,False
2020-08-31,2020,8,Aug,August,31,1,Mon,Monday,3,True,False
2020-09-01,2020,9,Sep,September,01,2,Tue,Tuesday,3,True,False
2020-09-02,2020,9,Sep,September,02,3,Wed,Wednesday,3,True,False
2020-09-03,2020,9,Sep,September,03,4,Thu,Thursday,3,True,False
2020-09-04,2020,9,Sep,September,04,5,Fri,Friday,3,True,False
2020-09-05,2020,9,Sep,September,05,6,Sat,Saturday,3,False,False
2020-09-06,2020,9,Sep,September,06,0,Sun,Sunday,3,False,False
2020-09-07,2020,9,Sep,September,07,1,Mon,Monday,3,True,False
2020-09-08,2020,9,Sep,September,08,2,Tue,Tuesday,3,True,False
2020-09-09,2020,9,Sep,September,09,3,Wed,Wednesday,3,True,False
2020-09-10,2020,9,Sep,September,10,4,Thu,Thursday,3,True,False
2020-09-11,2020,9,Sep,September,11,5,Fri,Friday,3,True,False
2020-09-12,2020,9,Sep,September,12,6,Sat,Saturday,3,False,False
2020-09-13,2020,9,Sep,September,13,0,Sun,Sunday,3,False,False
2020-09-14,2020,9,Sep,September,14,1,Mon,Monday,3,True,False
2020-09-15,2020,9,Sep,September,15,2,Tue,Tuesday,3,True,False
2020-09-16,2020,9,Sep,September,16,3,Wed,Wednesday,3,True,False
2020-09-17,2020,9,Sep,September,17,4,Thu,Thursday,3,True,False
2020-09-18,2020,9,Sep,September,18,5,Fri,Friday,3,True,False
2020-09-19,2020,9,Sep,September,19,6,Sat,Saturday,3,False,False
2020-09-20,2020,9,Sep,September,20,0,Sun,Sunday,3,False,False
2020-09-21,2020,9,Sep,September,21,1,Mon,Monday,3,True,False
2020-09-22,2020,9,Sep,September,22,2,Tue,Tuesday,3,True,False
2020-09-23,2020,9,Sep,September,23,3,Wed,Wednesday,3,True,False
2020-09-24,2020,9,Sep,September,24,4,Thu,Thursday,3,True,False
2020-09-25,2020,9,Sep,September,25,5,Fri,Friday,3,True,False
2020-09-26,2020,9,Sep,September,26,6,Sat,Saturday,3,False,False
2020-09-27,2020,9,Sep,September,27,0,Sun,Sunday,3,False,False
2020-09-28,2020,9,Sep,September,28,1,Mon,Monday,3,True,False
2020-09-29,2020,9,Sep,September,29,2,Tue,Tuesday,3,True,False
2020-09-30,2020,9,Sep,September,30,3,Wed,Wednesday,3,True,False
2020-10-01,2020,10,Oct,October,01,4,Thu,Thursday,4,True,False
2020-10-02,2020,10,Oct,October,02,5,Fri,Friday,4,True,False
2020-10-03,2020,10,Oct,October,03,6,Sat,Saturday,4,False,False
2020-10-04,2020,10,Oct,October,04,0,Sun,Sunday,4,False,False
2020-10-05,2020,10,Oct,October,05,1,Mon,Monday,4,True,False
2020-10-06,2020,10,Oct,October,06,2,Tue,Tuesday,4,True,False
2020-10-07,2020,10,Oct,October,07,3,Wed,Wednesday,4,True,False
2020-10-08,2020,10,Oct,October,08,4,Thu,Thursday,4,True,False
2020-10-09,2020,10,Oct,October,09,5,Fri,Friday,4,True,False
2020-10-10,2020,10,Oct,October,10,6,Sat,Saturday,4,False,False
2020-10-11,2020,10,Oct,October,11,0,Sun,Sunday,4,False,False
2020-10-12,2020,10,Oct,October,12,1,Mon,Monday,4,True,False
2020-10-13,2020,10,Oct,October,13,2,Tue,Tuesday,4,True,False
2020-10-14,2020,10,Oct,October,14,3,Wed,Wednesday,4,True,False
2020-10-15,2020,10,Oct,October,15,4,Thu,Thursday,4,True,False
2020-10-16,2020,10,Oct,October,16,5,Fri,Friday,4,True,False
2020-10-17,2020,10,Oct,October,17,6,Sat,Saturday,4,False,False
2020-10-18,2020,10,Oct,October,18,0,Sun,Sunday,4,False,False
2020-10-19,2020,10,Oct,October,19,1,Mon,Monday,4,True,False
2020-10-20,2020,10,Oct,October,20,2,Tue,Tuesday,4,True,False
2020-10-21,2020,10,Oct,October,21,3,Wed,Wednesday,4,True,False
2020-10-22,2020,10,Oct,October,22,4,Thu,Thursday,4,True,False
2020-10-23,2020,10,Oct,October,23,5,Fri,Friday,4,True,False
2020-10-24,2020,10,Oct,October,24,6,Sat,Saturday,4,False,False
2020-10-25,2020,10,Oct,October,25,0,Sun,Sunday,4,False,False
2020-10-26,2020,10,Oct,October,26,1,Mon,Monday,4,True,False
2020-10-27,2020,10,Oct,October,27,2,Tue,Tuesday,4,True,False
2020-10-28,2020,10,Oct,October,28,3,Wed,Wednesday,4,True,False
2020-10-29,2020,10,Oct,October,29,4,Thu,Thursday,4,True,False
2020-10-30,2020,10,Oct,October,30,5,Fri,Friday,4,True,False
2020-10-31,2020,10,Oct,October,31,6,Sat,Saturday,4,False,False
2020-11-01,2020,11,Nov,November,01,0,Sun,Sunday,4,False,False
2020-11-02,2020,11,Nov,November,02,1,Mon,Monday,4,True,False
2020-11-03,2020,11,Nov,November,03,2,Tue,Tuesday,4,True,False
2020-11-04,2020,11,Nov,November,04,3,Wed,Wednesday,4,True,False
2020-11-05,2020,11,Nov,November,05,4,Thu,Thursday,4,True,False
2020-11-06,2020,11,Nov,November,06,5,Fri,Friday,4,True,False
2020-11-07,2020,11,Nov,November,07,6,Sat,Saturday,4,False,False
2020-11-08,2020,11,Nov,November,08,0,Sun,Sunday,4,False,False
2020-11-09,2020,11,Nov,November,09,1,Mon,Monday,4,True,False
2020-11-10,2020,11,Nov,November,10,2,Tue,Tuesday,4,True,False
2020-11-11,2020,11,Nov,November,11,3,Wed,Wednesday,4,True,False
2020-11-12,2020,11,Nov,November,12,4,Thu,Thursday,4,True,False
2020-11-13,2020,11,Nov,November,13,5,Fri,Friday,4,True,False
2020-11-14,2020,11,Nov,November,14,6,Sat,Saturday,4,False,False
2020-11-15,2020,11,Nov,November,15,0,Sun,Sunday,4,False,False
2020-11-16,2020,11,Nov,November,16,1,Mon,Monday,4,True,False
2020-11-17,2020,11,Nov,November,17,2,Tue,Tuesday,4,True,False
2020-11-18,2020,11,Nov,November,18,3,Wed,Wednesday,4,True,False
2020-11-19,2020,11,Nov,November,19,4,Thu,Thursday,4,True,False
2020-11-20,2020,11,Nov,November,20,5,Fri,Friday,4,True,False
2020-11-21,2020,11,Nov,November,21,6,Sat,Saturday,4,False,False
2020-11-22,2020,11,Nov,November,22,0,Sun,Sunday,4,False,False
2020-11-23,2020,11,Nov,November,23,1,Mon,Monday,4,True,False
2020-11-24,2020,11,Nov,November,24,2,Tue,Tuesday,4,True,False
2020-11-25,2020,11,Nov,November,25,3,Wed,Wednesday,4,True,False
2020-11-26,2020,11,Nov,November,26,4,Thu,Thursday,4,True,False
2020-11-27,2020,11,Nov,November,27,5,Fri,Friday,4,True,False
2020-11-28,2020,11,Nov,November,28,6,Sat,Saturday,4,False,False
2020-11-29,2020,11,Nov,November,29,0,Sun,Sunday,4,False,False
2020-11-30,2020,11,Nov,November,30,1,Mon,Monday,4,True,False
2020-12-01,2020,12,Dec,December,01,2,Tue,Tuesday,4,True,False
2020-12-02,2020,12,Dec,December,02,3,Wed,Wednesday,4,True,False
2020-12-03,2020,12,Dec,December,03,4,Thu,Thursday,4,True,False
2020-12-04,2020,12,Dec,December,04,5,Fri,Friday,4,True,False
2020-12-05,2020,12,Dec,December,05,6,Sat,Saturday,4,False,False
2020-12-06,2020,12,Dec,December,06,0,Sun,Sunday,4,False,False
2020-12-07,2020,12,Dec,December,07,1,Mon,Monday,4,True,False
2020-12-08,2020,12,Dec,December,08,2,Tue,Tuesday,4,True,False
2020-12-09,2020,12,Dec,December,09,3,Wed,Wednesday,4,True,False
2020-12-10,2020,12,Dec,December,10,4,Thu,Thursday,4,True,False
2020-12-11,2020,12,Dec,December,11,5,Fri,Friday,4,True,False
2020-12-12,2020,12,Dec,December,12,6,Sat,Saturday,4,False,False
2020-12-13,2020,12,Dec,December,13,0,Sun,Sunday,4,False,False
2020-12-14,2020,12,Dec,December,14,1,Mon,Monday,4,True,False
2020-12-15,2020,12,Dec,December,15,2,Tue,Tuesday,4,True,False
2020-12-16,2020,12,Dec,December,16,3,Wed,Wednesday,4,True,False
2020-12-17,2020,12,Dec,December,17,4,Thu,Thursday,4,True,False
2020-12-18,2020,12,Dec,December,18,5,Fri,Friday,4,True,False
2020-12-19,2020,12,Dec,December,19,6,Sat,Saturday,4,False,False
2020-12-20,2020,12,Dec,December,20,0,Sun,Sunday,4,False,False
2020-12-21,2020,12,Dec,December,21,1,Mon,Monday,4,True,False
2020-12-22,2020,12,Dec,December,22,2,Tue,Tuesday,4,True,False
2020-12-23,2020,12,Dec,December,23,3,Wed,Wednesday,4,True,False
2020-12-24,2020,12,Dec,December,24,4,Thu,Thursday,4,True,False
2020-12-25,2020,12,Dec,December,25,5,Fri,Friday,4,True,False
2020-12-26,2020,12,Dec,December,26,6,Sat,Saturday,4,False,False
2020-12-27,2020,12,Dec,December,27,0,Sun,Sunday,4,False,False
2020-12-28,2020,12,Dec,December,28,1,Mon,Monday,4,True,False
2020-12-29,2020,12,Dec,December,29,2,Tue,Tuesday,4,True,False
2020-12-30,2020,12,Dec,December,30,3,Wed,Wednesday,4,True,False
