[
    {
        "startDate": "2021-07-27T09:44:29.964Z",
        "endDate": "2021-07-27T09:44:29.966Z",
        "timeNeeded": 2,
        "extraMemUsed": 13881344,
        "name": "1 times"
    },
    {
        "startDate": "2021-07-27T09:44:29.968Z",
        "endDate": "2021-07-27T09:44:29.979Z",
        "timeNeeded": 11,
        "extraMemUsed": 5767168,
        "name": "10 times"
    },
    {
        "startDate": "2021-07-27T09:44:29.979Z",
        "endDate": "2021-07-27T09:44:30.102Z",
        "timeNeeded": 123,
        "extraMemUsed": 0,
        "name": "100 times"
    }
]